Text mining with R
…
Tokenization

Tokenization is process of dividing a string of text into meaningful units called tokens;

A token can be a word, a phrase, a paragraph, or a single character depending on the nature of our analysis;

In R tokenization is performed using the tidytext function unnest_tokens().

Tokenization

tidy_content <- data_df %>% unnest_tokens(word, content, token="words")

tidy_content

# A tibble: 1,549,578 × 9
   author             category `date-pub` edition issue query title volume word 
   <chr>              <chr>    <date>     <lgl>   <int> <chr> <chr> <lgl>  <chr>
 1 ['FROM A SPECIAL … ['News'] 1962-11-05 NA      55540 time… Euro… NA     from 
 2 ['FROM A SPECIAL … ['News'] 1962-11-05 NA      55540 time… Euro… NA     a    
 3 ['FROM A SPECIAL … ['News'] 1962-11-05 NA      55540 time… Euro… NA     spec…
 4 ['FROM A SPECIAL … ['News'] 1962-11-05 NA      55540 time… Euro… NA     corr…
 5 ['FROM A SPECIAL … ['News'] 1962-11-05 NA      55540 time… Euro… NA     at   
 6 ['FROM A SPECIAL … ['News'] 1962-11-05 NA      55540 time… Euro… NA     this 
 7 ['FROM A SPECIAL … ['News'] 1962-11-05 NA      55540 time… Euro… NA     junc…
 8 ['FROM A SPECIAL … ['News'] 1962-11-05 NA      55540 time… Euro… NA     of   
 9 ['FROM A SPECIAL … ['News'] 1962-11-05 NA      55540 time… Euro… NA     focus
10 ['FROM A SPECIAL … ['News'] 1962-11-05 NA      55540 time… Euro… NA     on   
# ℹ 1,549,568 more rows
…
[1] FALSE

Removing stop words

Unstructured data can contain a lot of irrelevant information. The most common words in a text are words that have very little meaning, such as “the”, “and”, “a”, etc. These words are referred to as stop words and removing stop words from text (in a way or another) is a fundamental step of text mining.

data(stop_words)

tidy_clean_content <- tidy_content %>% anti_join(stop_words)

tidy_clean_content

# A tibble: 801,754 × 9
   author             category `date-pub` edition issue query title volume word 
   <chr>              <chr>    <date>     <lgl>   <int> <chr> <chr> <lgl>  <chr>
 1 ['FROM A SPECIAL … ['News'] 1962-11-05 NA      55540 time… Euro… NA     spec…
 2 ['FROM A SPECIAL … ['News'] 1962-11-05 NA      55540 time… Euro… NA     corr…
 3 ['FROM A SPECIAL … ['News'] 1962-11-05 NA      55540 time… Euro… NA     junc…
 4 ['FROM A SPECIAL … ['News'] 1962-11-05 NA      55540 time… Euro… NA     focus
 5 ['FROM A SPECIAL … ['News'] 1962-11-05 NA      55540 time… Euro… NA     euro…
 6 ['FROM A SPECIAL … ['News'] 1962-11-05 NA      55540 time… Euro… NA     37   
 7 ['FROM A SPECIAL … ['News'] 1962-11-05 NA      55540 time… Euro… NA     women
 8 ['FROM A SPECIAL … ['News'] 1962-11-05 NA      55540 time… Euro… NA     sat  
 9 ['FROM A SPECIAL … ['News'] 1962-11-05 NA      55540 time… Euro… NA     round
10 ['FROM A SPECIAL … ['News'] 1962-11-05 NA      55540 time… Euro… NA     conf…
# ℹ 801,744 more rows
…
Computing and displaying tf-idf

issue_tf_idf <- issue_words %>%
  bind_tf_idf(word, issue, n)

issue_tf_idf %>%
  arrange(desc(tf))

# A tibble: 574,385 × 6
   issue word      n    tf   idf tf_idf
   <int> <chr> <int> <dbl> <dbl>  <dbl>
 1 68302 the       8 0.170     0      0
 2 52204 the      31 0.150     0      0
 3 53256 the      28 0.146     0      0
 4 53191 the      58 0.146     0      0
 5 53078 the      27 0.141     0      0
 6 57761 the      18 0.132     0      0
 7 53284 the      58 0.130     0      0
 8 53077 the      26 0.13      0      0
 9 61094 the      49 0.130     0      0
10 53175 the      76 0.130     0      0
# ℹ 574,375 more rows

Computing and displaying tf-idf

issue_tf_idf %>%
  arrange(desc(tf_idf))

# A tibble: 574,385 × 6
   issue word          n     tf   idf tf_idf
   <int> <chr>     <int>  <dbl> <dbl>  <dbl>
 1 68732 cod          21 0.0463  7.17  0.332
 2 68277 bosnian       2 0.0435  7.17  0.312
 3 68405 code          2 0.0426  5.38  0.229
 4 68873 croatia       4 0.0317  7.17  0.228
 5 68873 rehn          4 0.0317  7.17  0.228
 6 55541 merlot        3 0.0283  7.17  0.203
 7 68578 flag          2 0.0455  4.40  0.200
 8 68890 ceausescu     2 0.0278  7.17  0.199
 9 68277 agents        2 0.0435  4.53  0.197
10 68302 wording       2 0.0426  4.61  0.196
# ℹ 574,375 more rows
…
We can tokenize text so to obtain groups of n words or ngrams;

An ngram is just a contiguous sequence of n items;

In R ngrams are made using the tidytext function unnest_tokens().

Relationships Between Words

tidy_content_rel <- data_df %>% 
  unnest_tokens(bigram, content, token="ngrams", n=2)

tidy_content_rel

# A tibble: 1,548,046 × 9
   author            category `date-pub` edition issue query title volume bigram
   <chr>             <chr>    <date>     <lgl>   <int> <chr> <chr> <lgl>  <chr> 
 1 ['FROM A SPECIAL… ['News'] 1962-11-05 NA      55540 time… Euro… NA     from a
 2 ['FROM A SPECIAL… ['News'] 1962-11-05 NA      55540 time… Euro… NA     a spe…
 3 ['FROM A SPECIAL… ['News'] 1962-11-05 NA      55540 time… Euro… NA     speci…
 4 ['FROM A SPECIAL… ['News'] 1962-11-05 NA      55540 time… Euro… NA     corre…
 5 ['FROM A SPECIAL… ['News'] 1962-11-05 NA      55540 time… Euro… NA     at th…
 6 ['FROM A SPECIAL… ['News'] 1962-11-05 NA      55540 time… Euro… NA     this …
 7 ['FROM A SPECIAL… ['News'] 1962-11-05 NA      55540 time… Euro… NA     junct…
 8 ['FROM A SPECIAL… ['News'] 1962-11-05 NA      55540 time… Euro… NA     of fo…
 9 ['FROM A SPECIAL… ['News'] 1962-11-05 NA      55540 time… Euro… NA     focus…
10 ['FROM A SPECIAL… ['News'] 1962-11-05 NA      55540 time… Euro… NA     on eu…
# ℹ 1,548,036 more rows
…
