Text Mining with I-Analyzer & R - Text Mining with R
…
Text Preprocessing

Tokenization

As we mentioned in the introduction, text data mostly comes unstructured and it is up to us to define a data structure suitable for the kind of text analysis we want to perform. We want our data structure to be comprehensive and to be easily manipulated according to our needs. Having this goal in mind, a possibility is to divide text into either characters, words, or paragraphs and to obtain a data set where each row contains one of these elements and all its relative information.

The process of dividing a string of text into meaningful units is called Tokenization and these meaningful units are called tokens. A token can be a word, a phrase, a paragraph, or a single character depending on the nature of our analysis. If, for example, we want just to explore how many times the name of a certain politician is mentioned in a speech, our tokens would probably be all the words of the speech and our analysis would consist on counting how many tokens are equal to the name of the politician.

To perform “good” text mining, not only we want to optimally “tokenize” our text as well as organize our tokens in a tidy way, quite literally! For the R community, “tidy” has a very specific meaning, i.e. structuring data sets to make them consistent, easy to work with, and easy to analyze. In our context it means having a single token per data frame row. R allows us to perform all these operations in few lines thanks to the library tidytext:

tidy_content <- data_df %>% unnest_tokens(word, content, token="words")

tidy_content

# A tibble: 1,549,578 × 9
   author             category `date-pub` edition issue query title volume word 
   <chr>              <chr>    <date>     <lgl>   <int> <chr> <chr> <lgl>  <chr>
 1 ['FROM A SPECIAL … ['News'] 1962-11-05 NA      55540 time… Euro… NA     from 
 2 ['FROM A SPECIAL … ['News'] 1962-11-05 NA      55540 time… Euro… NA     a    
 3 ['FROM A SPECIAL … ['News'] 1962-11-05 NA      55540 time… Euro… NA     spec…
 4 ['FROM A SPECIAL … ['News'] 1962-11-05 NA      55540 time… Euro… NA     corr…
 5 ['FROM A SPECIAL … ['News'] 1962-11-05 NA      55540 time… Euro… NA     at   
 6 ['FROM A SPECIAL … ['News'] 1962-11-05 NA      55540 time… Euro… NA     this 
 7 ['FROM A SPECIAL … ['News'] 1962-11-05 NA      55540 time… Euro… NA     junc…
 8 ['FROM A SPECIAL … ['News'] 1962-11-05 NA      55540 time… Euro… NA     of   
 9 ['FROM A SPECIAL … ['News'] 1962-11-05 NA      55540 time… Euro… NA     focus
10 ['FROM A SPECIAL … ['News'] 1962-11-05 NA      55540 time… Euro… NA     on   
# ℹ 1,549,568 more rows
…
[1] "Lucky you! I could not find any NA in your data (yet...)!"

A second problem of unstructured data is that it can be very “noisy”, i.e. it can contain a lot of irrelevant information. Actually, the most common words in a text are words that have very little meaning, such as “the”, “and”, “a”, etc. These words are referred to as stop words and removing stop words from text (in a way or another) is a fundamental step of text mining:

data(stop_words)

tidy_clean_content <- tidy_content %>% anti_join(stop_words)

tidy_clean_content

# A tibble: 801,754 × 9
   author             category `date-pub` edition issue query title volume word 
   <chr>              <chr>    <date>     <lgl>   <int> <chr> <chr> <lgl>  <chr>
 1 ['FROM A SPECIAL … ['News'] 1962-11-05 NA      55540 time… Euro… NA     spec…
 2 ['FROM A SPECIAL … ['News'] 1962-11-05 NA      55540 time… Euro… NA     corr…
 3 ['FROM A SPECIAL … ['News'] 1962-11-05 NA      55540 time… Euro… NA     junc…
 4 ['FROM A SPECIAL … ['News'] 1962-11-05 NA      55540 time… Euro… NA     focus
 5 ['FROM A SPECIAL … ['News'] 1962-11-05 NA      55540 time… Euro… NA     euro…
 6 ['FROM A SPECIAL … ['News'] 1962-11-05 NA      55540 time… Euro… NA     37   
 7 ['FROM A SPECIAL … ['News'] 1962-11-05 NA      55540 time… Euro… NA     women
 8 ['FROM A SPECIAL … ['News'] 1962-11-05 NA      55540 time… Euro… NA     sat  
 9 ['FROM A SPECIAL … ['News'] 1962-11-05 NA      55540 time… Euro… NA     round
10 ['FROM A SPECIAL … ['News'] 1962-11-05 NA      55540 time… Euro… NA     conf…
# ℹ 801,744 more rows
…
We use the function semi_join() to join the DataFrames issue_total_words and first_6_unique_issues according to the column issue. In this way the resulting DataFrame will have the same structure of issue_total_words but will contain only rows with issues corresponding to the ones listed in first_6_unique_issues. For visualization purposes, we then apply the function mutate() to replace the issue column (containing numeric values) with a column having exactly the same name and values, but in a string (character) format. This will help the plot function to label our plots properly;

We feed the previous result to the function ggplot() for plotting. aes() is a function that stands for “aesthetics” and it is used to specify what to plot. In our case we want to plot the terms frequency, i.e. n/total. The color of the generated plots will vary according to the issue column, this is specified with fill=issue. We also indicate that we want to plot a histogram without legend (geom_histogram(show.legend = FALSE)). We also specify the boundary of the x axis with xlim() and that we want plots to be distributed in a grid. To do that we use the function facet_wrap() that will plot several plots according to the column issue in a grid of plots with 2 columns (ncols=2)

Looking at the histograms of the six longest issues in our sample, it is quite evident that the term frequency follows a very similar distribution in almost all the issues. This is because the most frequent terms in all the issues are meaningless stop words and the frequency of stop words does NOT depend on the topic or the particular issue.

Now that we had a look at the term frequency per issue, let’s compute the tf-idf and let’s compare these two indicators. Once again, we do not have to do that manually as the package tydytext provides us a specific function for this purpose:

issue_tf_idf <- issue_words %>%
  bind_tf_idf(word, issue, n)

issue_tf_idf %>%
  arrange(desc(tf))

# A tibble: 574,385 × 6
   issue word      n    tf   idf tf_idf
   <int> <chr> <int> <dbl> <dbl>  <dbl>
 1 68302 the       8 0.170     0      0
 2 52204 the      31 0.150     0      0
 3 53256 the      28 0.146     0      0
 4 53191 the      58 0.146     0      0
 5 53078 the      27 0.141     0      0
 6 57761 the      18 0.132     0      0
 7 53284 the      58 0.130     0      0
 8 53077 the      26 0.13      0      0
 9 61094 the      49 0.130     0      0
10 53175 the      76 0.130     0      0
# ℹ 574,375 more rows
…
How does it work?

The function bind_tf_idf() computes term frequency, idf, and multiples them together to obtain tf-idf. Its arguments are the name of the column containing the token (in this dase word), the column containing the unique identifier of the document in our sample (issue) and the column with the number of times the token occurs in the text (n). It then stores all these outputs in a DataFrame (issue_tf_idf) per word;

We sort the output result, the DataFrame issue_tf_idf, by descending values of term frequency with the function arrange().

Looking at the first rows of the output DataFrame, it is clear that the most frequent word is “the”, a stop word. However, when we look at the corresponding tf-idf, its value is zero. This is because its idf is zero and it is an indicator that, indeed, “the” is a common word and I may be important, but it is too much common and that, perhaps, it should be excluded from our analysis.

issue_tf_idf %>%
  arrange(desc(tf_idf))

# A tibble: 574,385 × 6
   issue word          n     tf   idf tf_idf
   <int> <chr>     <int>  <dbl> <dbl>  <dbl>
 1 68732 cod          21 0.0463  7.17  0.332
 2 68277 bosnian       2 0.0435  7.17  0.312
 3 68405 code          2 0.0426  5.38  0.229
 4 68873 croatia       4 0.0317  7.17  0.228
 5 68873 rehn          4 0.0317  7.17  0.228
 6 55541 merlot        3 0.0283  7.17  0.203
 7 68578 flag          2 0.0455  4.40  0.200
 8 68890 ceausescu     2 0.0278  7.17  0.199
 9 68277 agents        2 0.0435  4.53  0.197
10 68302 wording       2 0.0426  4.61  0.196
# ℹ 574,375 more rows
…
We immediately notice that the stop words are gone and that the most frequent biagrams in our corpus are “total vote” and “lab majority”.

Sometimes, it is useful to keep our bigrams in two distinct columns, one per word. This format could be very handy when we need to apply filtering criteria to only one of the words of the biagram. For example, we might be interested in the most common biagrams where the second word is “vote”. We already obtained this format when computing the DataFrame bigrams_separated:

bigrams_filtered %>% 
  filter(word2 == "vote") %>%
  count(issue, word1, sort=TRUE)

# A tibble: 709 × 3
   issue word1      n
   <int> <chr>  <int>
 1 57897 total   1258
 2 59216 total   1222
 3 59028 total    916
 4 61556 total    602
 5 59216 rotal     15
 6 59028 rotal     10
 7 61556 6          5
 8 61556 rotal      5
 9 53127 french     4
10 61556 96         4
# ℹ 699 more rows

In this case we obtain the count of all the words preceding the word vote by issue. “total” is the most frequent.

In the previous paragraph we mentioned that tf-idf is a function of the selected term. More in general, we can compute tf-idf for the seleced token, whatever it is a single character, word, biagram, n-gram, sentence, etc. To compute the tf-idf for our biagram we do not need to introduce any new tool, but we will simply use the function `bind_tf_idf()’ in a similar way as we did for single words:

bigram_tf_idf <- tidy_content_rel_clean %>%
  count(issue, bigram) %>%
  bind_tf_idf(bigram, issue, n) %>%
  arrange(tf_idf)

bigram_tf_idf

# A tibble: 328,843 × 6
   issue bigram             n        tf    idf      tf_idf
   <int> <chr>          <int>     <dbl>  <dbl>       <dbl>
 1 56145 european union     1 0.0000384 0.0147 0.000000564
 2 59216 european union     3 0.0000650 0.0147 0.000000954
 3 56596 european union     2 0.0000686 0.0147 0.00000101 
 4 61556 european union     6 0.000140  0.0147 0.00000205 
 5 57897 european union     7 0.000169  0.0147 0.00000248 
 6 59028 european union     7 0.000179  0.0147 0.00000263 
 7 56120 european union     1 0.000584  0.0147 0.00000857 
 8 54346 european union     1 0.000654  0.0147 0.00000959 
 9 57791 european union     2 0.000893  0.0147 0.0000131  
10 55250 european union     1 0.000972  0.0147 0.0000143  
# ℹ 328,833 more rows
…
