Text mining with R
…
issue_tf_idf <- issue_total_words %>%
  mutate(issue=as.character(issue)) %>%
  bind_tf_idf(word, issue, n)

Warning: A value for tf_idf is negative:
 Input should have exactly one row per document-term combination.

issue_tf_idf

# A tibble: 575,568 × 7
   issue word          n total     tf       idf     tf_idf
   <chr> <chr>     <int> <int>  <dbl>     <dbl>      <dbl>
 1 70120 the           7   105 0.0667 -0.000767 -0.0000511
 2 70120 chemicals     3   105 0.0286  5.23      0.149    
 3 70120 more          3   105 0.0286  0.500     0.0143   
 4 70120 or            3   105 0.0286  0.500     0.0143   
 5 70120 than          3   105 0.0286  0.663     0.0189   
 6 70120 used          3   105 0.0286  2.13      0.0609   
 7 70120 and           2   105 0.0190  0.00615   0.000117 
 8 70120 database      2   105 0.0190  7.17      0.137    
 9 70120 echa          2   105 0.0190  7.17      0.137    
10 70120 european      2   105 0.0190  0.00153   0.0000292
# … with 575,558 more rows

issue_tf_idf %>%
  arrange(desc(tf_idf))

# A tibble: 575,568 × 7
   issue word          n total     tf   idf tf_idf
   <chr> <chr>     <int> <int>  <dbl> <dbl>  <dbl>
 1 68732 cod          21   454 0.0463  7.17  0.332
 2 68277 bosnian       2    46 0.0435  7.17  0.312
 3 68405 code          2    47 0.0426  5.38  0.229
 4 68873 croatia       4   126 0.0317  7.17  0.228
 5 68873 rehn          4   126 0.0317  7.17  0.228
 6 55541 merlot        3   106 0.0283  7.17  0.203
 7 68578 flag          2    44 0.0455  4.40  0.200
 8 68890 ceausescu     2    72 0.0278  7.17  0.199
 9 68277 agents        2    46 0.0435  4.53  0.197
10 68302 wording       2    47 0.0426  4.61  0.196
# … with 575,558 more rows
…
issue_tf_idf <- issue_words %>%
  mutate(issue=as.character(issue)) %>%
  bind_tf_idf(word, issue, n) %>%
  arrange(desc(tf-idf))

Warning: A value for tf_idf is negative:
 Input should have exactly one row per document-term combination.

issue_tf_idf

# A tibble: 575,568 × 6
   issue word      n    tf       idf     tf_idf
   <chr> <chr> <int> <dbl>     <dbl>      <dbl>
 1 68302 the       8 0.170 -0.000767 -0.000130 
 2 52204 the      31 0.150 -0.000767 -0.000115 
 3 53256 the      28 0.146 -0.000767 -0.000112 
 4 53191 the      58 0.146 -0.000767 -0.000112 
 5 53078 the      27 0.141 -0.000767 -0.000108 
 6 57761 the      18 0.132 -0.000767 -0.000101 
 7 53284 the      58 0.130 -0.000767 -0.0000999
 8 53077 the      26 0.13  -0.000767 -0.0000997
 9 61094 the      49 0.130 -0.000767 -0.0000996
10 53175 the      76 0.130 -0.000767 -0.0000994
# … with 575,558 more rows
…
